…
> ## Exercise 3: Subsetting
>
> Name the subset of `by_month_year` that is not in 2018  monthprec_hist, find the total precipitation in June of 2015.
> 
> > ## Exercise 3 Solution
> > 
> > ~~~
> > subset(by_month_year, year != 2018)
> > ~~~
> > {: .language-r}
> > 
> > 
> > 
> > ~~~
> > # A tibble: 216 x 3
> > # Groups:   month [12]
> >    month  year prec_month
> >    <ord> <dbl>      <dbl>
> >  1 Jan    2000      2.44 
> >  2 Jan    2001      0.984
> >  3 Jan    2002      1.69 
> >  4 Jan    2003      1.65 
> >  5 Jan    2004      3.31 
> >  6 Jan    2005      7.68 
> >  7 Jan    2006      3.07 
> >  8 Jan    2007      5.87 
> >  9 Jan    2008      2.64 
> > 10 Jan    2009      1.85 
> > # … with 206 more rows
…
